<?xml version="1.0" encoding="utf-8"?>
<!-- Generator: Adobe Illustrator 17.1.0, SVG Export Plug-In . SVG Version: 6.00 Build 0)  -->
<!DOCTYPE svg PUBLIC "-//W3C//DTD SVG 1.1//EN" "http://www.w3.org/Graphics/SVG/1.1/DTD/svg11.dtd">
<svg version="1.1" id="Layer_1" xmlns="http://www.w3.org/2000/svg" xmlns:xlink="http://www.w3.org/1999/xlink" x="0px" y="0px"
	 viewBox="0 0 162 162" enable-background="new 0 0 162 162" xml:space="preserve">
<g>
	<polygon fill="#023D69" points="0,0 0,162 162,162 162,0 0,0 	"/>
	<g>
		<path fill="#AF1732" d="M68.28,47.451c2.745,0,5.256,0.41,7.324,1.097c-4.807-3.511-16.105-6.17-28.224,0.055
			c0,0,1.986,3.548,2.739,4.858C55.466,50.041,61.591,47.451,68.28,47.451L68.28,47.451z M61.688,73.978
			C74.645,58.571,92.65,60.021,96.332,60.406c-3.486-2.326-8.52-3.934-14.211-3.985c-7.822,0-16.269,2.759-24.455,10.428
			C58.602,68.515,61.688,73.978,61.688,73.978L61.688,73.978z M52.187,57.129c6.405-4.588,12.526-6.899,19.775-6.899
			c8.163,0,12.698,2.856,14.372,3.919c-1.596-0.448-3.852-0.886-6.839-0.886c-8.903,0-17.396,3.626-24.11,9.515
			C55.384,62.779,53.527,59.428,52.187,57.129L52.187,57.129z"/>
	</g>
	<path fill="#FFFFFF" d="M73.269,91.65v-0.559c-1.15-0.098-1.367-0.154-1.727-1.154l-4.245-11.626h-1.703L63.51,84.02
		c-0.618,1.676-1.452,3.988-2.147,5.742c-0.417,1.041-0.595,1.271-1.848,1.33v0.559h4.373v-0.559l-1.033-0.098
		c-0.596-0.057-0.657-0.248-0.498-0.77c0.337-1.156,0.755-2.35,1.213-3.721h4.447l1.329,3.682c0.2,0.561,0.102,0.771-0.535,0.83
		l-0.895,0.076v0.559H73.269L73.269,91.65z M67.78,85.771h-3.955c0.638-1.928,1.333-3.817,1.928-5.513h0.06L67.78,85.771
		L67.78,85.771z"/>
	<path fill="#FFFFFF" d="M73.974,91.65v-0.541l0.634-0.055c0.338-0.039,0.655-0.195,0.713-0.578
		c0.061-0.445,0.102-0.965,0.102-1.697v-5.166c0-1.002-0.121-1.025-1.531-1.098v-0.541h3.989c0.471,1.117,2.986,7.089,2.986,7.089
		h0.061c0,0,2.638-5.973,3.095-7.089h3.895v0.541c-1.432,0.072-1.527,0.096-1.527,1.098v6.398c0,1.004,0.119,1.021,1.527,1.098
		v0.541h-4.967v-0.541c1.393-0.076,1.488-0.094,1.488-1.098v-6.844h-0.076l-3.738,8.482H79.99l-3.673-8.482h-0.081v5.611
		c0,0.732,0.041,1.252,0.099,1.697c0.062,0.383,0.339,0.518,0.857,0.578l0.695,0.055v0.541H73.974L73.974,91.65z"/>
	<path fill="#FFFFFF" d="M97.877,81.975v2.429H97.32c-0.217-1.6-0.971-1.793-2.463-1.793h-1.449c-0.34,0-0.438,0.133-0.438,0.48
		v3.313h1.906c1.291,0,1.549-0.23,1.688-1.271h0.555v3.182h-0.555c-0.139-1.043-0.396-1.275-1.688-1.275h-1.906v2.664
		c0,0.561,0.098,0.887,0.318,1.059c0.217,0.158,0.852,0.254,1.77,0.254c1.111,0,1.805-0.117,2.164-0.426
		c0.295-0.287,0.533-0.965,0.654-1.561h0.555l-0.178,2.621H89.41v-0.541c1.434-0.076,1.531-0.094,1.531-1.098v-6.398
		c0-1.002-0.117-1.025-1.531-1.098v-0.541H97.877L97.877,81.975z"/>
	<path fill="#FFFFFF" d="M105.141,87.178c0.854,0,1.32,0.256,1.547,0.715c0.313,0.633,0.328,1.664,0.695,2.621
		c0.297,0.764,0.762,1.137,2.002,1.137h1.396v-0.541c-0.377,0-0.799-0.107-1.033-0.363c-0.178-0.199-0.414-0.447-0.572-1.41
		c-0.209-1.211-0.461-2.119-2.049-2.465v-0.039c1.41-0.156,2.443-1,2.443-2.352c0-1.447-0.953-2.505-3.654-2.505h-5.604v0.541
		c1.408,0.072,1.525,0.096,1.525,1.098v6.398c0,1.004-0.1,1.021-1.525,1.098v0.541h5.084v-0.541
		c-1.408-0.076-1.529-0.094-1.529-1.098v-2.834H105.141L105.141,87.178z M103.867,86.543v-3.334c0-0.521,0.396-0.598,1.332-0.598
		c0.99,0,2.203,0.328,2.203,1.984c0,1.35-0.791,1.947-2.146,1.947H103.867L103.867,86.543z"/>
	<path fill="#FFFFFF" d="M115.283,90.012c0,1.004,0.117,1.02,1.529,1.098v0.541h-5.088v-0.541c1.43-0.078,1.531-0.094,1.531-1.098
		v-6.398c0-1.002-0.121-1.025-1.531-1.098v-0.542h5.088v0.542c-1.43,0.072-1.529,0.096-1.529,1.098V90.012L115.283,90.012z"/>
	<path fill="#FFFFFF" d="M127.205,84.787h-0.557c-0.297-1.213-0.91-2.408-2.859-2.408c-2.342-0.039-3.475,1.908-3.475,4.355
		c0,1.697,0.535,4.512,3.535,4.512c2.104,0,2.602-1.234,3.096-2.584h0.559l-0.24,2.584c-1.07,0.463-2.301,0.637-3.594,0.637
		c-1.807,0-3.258-0.404-4.172-1.271c-0.914-0.869-1.393-2.123-1.393-3.719c0-1.68,0.518-2.893,1.512-3.82
		c0.932-0.885,2.504-1.331,4.271-1.331c1.131,0.039,2.426,0.177,3.316,0.577V84.787L127.205,84.787z"/>
	<path fill="#FFFFFF" d="M139.107,91.65v-0.541c-0.912-0.035-1.213-0.076-1.453-0.711l-3.135-8.423h-1.689l-1.592,4.277
		c-0.436,1.18-1.072,2.896-1.529,3.992c-0.277,0.693-0.518,0.811-1.527,0.865v0.541h3.691v-0.541l-0.912-0.076
		c-0.422-0.039-0.422-0.271-0.34-0.598c0.16-0.578,0.475-1.521,0.775-2.313h3.318l0.871,2.371c0.121,0.326,0.121,0.539-0.279,0.561
		l-0.789,0.055v0.541H139.107L139.107,91.65z M134.496,87.488h-2.881l1.449-3.992h0.041L134.496,87.488L134.496,87.488z"/>
	<path fill="#FFFFFF" d="M28.532,77.99c-2.188,0-3.937,0.654-5.051,1.869c-1.072,1.155-1.748,2.913-1.748,5.09
		c0,2.156,0.677,3.93,1.748,5.088c1.114,1.217,2.863,1.869,5.051,1.869c2.205,0,3.934-0.652,5.046-1.869
		c1.094-1.158,1.749-2.932,1.749-5.088c0-2.178-0.655-3.935-1.749-5.09C32.466,78.645,30.737,77.99,28.532,77.99L28.532,77.99z
		 M28.532,78.665c3.535,0,4.348,3.449,4.389,6.285c-0.04,2.832-0.854,6.281-4.389,6.281c-3.538,0-4.352-3.449-4.393-6.281
		C24.18,82.113,24.994,78.665,28.532,78.665L28.532,78.665z"/>
	<path fill="#FFFFFF" d="M40.512,81.943c1.808,2.485,3.492,4.813,5.263,7.262h0.075v-4.334c0-0.732-0.039-1.234-0.098-1.697
		c-0.057-0.424-0.337-0.578-0.834-0.617l-0.775-0.076v-0.538h3.973v0.538l-0.636,0.076c-0.338,0.039-0.636,0.232-0.696,0.561
		c-0.057,0.52-0.119,1.021-0.119,1.754v6.748h-1.653c-2.003-2.76-3.904-5.383-5.917-8.211h-0.079v5.279
		c0,0.732,0.039,1.252,0.099,1.697c0.059,0.441,0.338,0.578,0.853,0.615l0.738,0.078v0.541h-3.956v-0.541L37.387,91
		c0.339-0.037,0.636-0.174,0.715-0.615c0.06-0.445,0.099-0.965,0.099-1.697V83.58c0-1.002-0.119-1.023-1.53-1.1v-0.538H40.512
		L40.512,81.943z"/>
	<path fill="#FFFFFF" d="M57.672,81.943v2.428h-0.556c-0.221-1.6-0.977-1.793-2.466-1.793h-1.448c-0.338,0-0.437,0.135-0.437,0.48
		v3.313h1.906c1.29,0,1.549-0.23,1.689-1.273h0.557v3.184H56.36c-0.14-1.043-0.399-1.275-1.689-1.275h-1.906v2.666
		c0,0.559,0.099,0.885,0.318,1.059c0.218,0.158,0.855,0.252,1.769,0.252c1.112,0,1.807-0.117,2.163-0.426
		c0.298-0.287,0.537-0.963,0.657-1.559h0.556l-0.18,2.621h-8.84v-0.541c1.432-0.078,1.53-0.096,1.53-1.1V83.58
		c0-1.002-0.121-1.023-1.53-1.1v-0.538H57.672L57.672,81.943z"/>
	<polygon fill="#FFFFFF" points="61.37,81.552 44.392,50.271 45.648,49.53 62.291,79.036 61.37,81.552 	"/>
	<path fill="#FFFFFF" d="M138.885,81.107h0.207c0.275,0,0.463-0.113,0.463-0.41c0-0.329-0.221-0.399-0.426-0.399
		c-0.221,0-0.244,0.032-0.244,0.113V81.107L138.885,81.107z M138.26,82.203v-0.107l0.166-0.021c0.092-0.01,0.109-0.059,0.109-0.151
		v-1.485c0-0.103-0.018-0.146-0.109-0.162l-0.166-0.021v-0.108h0.971c0.525,0,0.703,0.217,0.703,0.508
		c0,0.297-0.223,0.465-0.523,0.514v0.01c0.322,0.082,0.377,0.281,0.42,0.52c0.027,0.156,0.076,0.254,0.146,0.335
		c0.043,0.043,0.113,0.07,0.189,0.092v0.08h-0.238c-0.232,0-0.34-0.08-0.395-0.232c-0.074-0.216-0.092-0.448-0.141-0.55
		c-0.053-0.114-0.156-0.162-0.322-0.162h-0.186v0.664c0,0.092,0.023,0.141,0.119,0.151l0.162,0.021v0.107H138.26L138.26,82.203z
		 M137.531,81.194c0,0.957,0.713,1.707,1.619,1.707c0.906,0,1.619-0.75,1.619-1.707c0-0.956-0.713-1.707-1.619-1.707
		C138.244,79.487,137.531,80.238,137.531,81.194L137.531,81.194z M137.184,81.194c0-1.08,0.881-1.949,1.967-1.949
		c1.086,0,1.965,0.869,1.965,1.949c0,1.08-0.879,1.951-1.965,1.951C138.064,83.145,137.184,82.273,137.184,81.194L137.184,81.194z"
		/>
</g>
</svg>
